<svg xmlns="http://www.w3.org/2000/svg" xmlns:xlink="http://www.w3.org/1999/xlink" width="402.197" height="245.794" viewBox="0 0 402.197 245.794">
  <defs>
    <clipPath id="clip-path">
      <rect id="Rectangle_3753" data-name="Rectangle 3753" width="201.882" height="145.67" fill="none"/>
    </clipPath>
    <clipPath id="clip-path-2">
      <rect id="Rectangle_3754" data-name="Rectangle 3754" width="52.126" height="50.79" fill="none"/>
    </clipPath>
  </defs>
  <g id="Group_4895" data-name="Group 4895" transform="translate(-249.548 -422.985)">
    <rect id="Rectangle_3744" data-name="Rectangle 3744" width="90.255" height="132.897" transform="translate(263.816 505.881) rotate(-33.777)" fill="#f5f5f5"/>
    <path id="Path_3032" data-name="Path 3032" d="M167.179,277l-.851,5.269-37.294-5.373.852-5.269Z" transform="translate(206.787 283.933)" fill="#e0e0e0"/>
    <path id="Path_3033" data-name="Path 3033" d="M155.054,251.546l5.352.771-5.933,36.718-5.352-.771Z" transform="translate(200.129 290.587)" fill="#e0e0e0"/>
    <path id="Path_3034" data-name="Path 3034" d="M89.877,181.746c.053.08-7.465,5.2-16.79,11.439S56.155,204.416,56.1,204.336s7.463-5.2,16.792-11.441,16.93-11.23,16.983-11.15" transform="translate(230.956 313.719)" fill="#e0e0e0"/>
    <path id="Path_3035" data-name="Path 3035" d="M120.107,171.387c.053.08-12.449,8.536-27.92,18.884s-28.063,18.677-28.117,18.6,12.446-8.534,27.923-18.885,28.061-18.675,28.114-18.6" transform="translate(228.316 317.151)" fill="#e0e0e0"/>
    <path id="Path_3036" data-name="Path 3036" d="M128.378,183.753c.053.08-12.449,8.536-27.92,18.884s-28.063,18.677-28.117,18.6,12.446-8.535,27.923-18.886,28.061-18.675,28.114-18.6" transform="translate(225.575 313.053)" fill="#e0e0e0"/>
    <path id="Path_3037" data-name="Path 3037" d="M136.65,196.12c.053.08-12.449,8.536-27.92,18.884S80.666,233.68,80.613,233.6s12.445-8.534,27.923-18.886S136.6,196.039,136.65,196.12" transform="translate(222.833 308.955)" fill="#e0e0e0"/>
    <path id="Path_3038" data-name="Path 3038" d="M144.921,208.486c.053.08-12.449,8.536-27.92,18.884s-28.063,18.677-28.117,18.6,12.446-8.534,27.923-18.885,28.061-18.675,28.114-18.6" transform="translate(220.092 304.857)" fill="#e0e0e0"/>
    <rect id="Rectangle_3745" data-name="Rectangle 3745" width="75.798" height="111.611" transform="matrix(0.831, -0.556, 0.556, 0.831, 526.689, 571.876)" fill="#f5f5f5"/>
    <path id="Path_3039" data-name="Path 3039" d="M536.987,362.943l-.715,4.425-31.32-4.512.715-4.425Z" transform="translate(82.208 255.165)" fill="#e0e0e0"/>
    <path id="Path_3040" data-name="Path 3040" d="M526.8,341.57l4.494.647-4.983,30.837-4.494-.648Z" transform="translate(76.618 260.753)" fill="#e0e0e0"/>
    <path id="Path_3041" data-name="Path 3041" d="M472.066,282.948c.053.08-6.253,4.391-14.085,9.63S443.754,302,443.7,301.921s6.253-4.391,14.087-9.631,14.225-9.421,14.278-9.341" transform="translate(102.506 280.18)" fill="#e0e0e0"/>
    <path id="Path_3042" data-name="Path 3042" d="M497.454,274.249c.053.08-10.439,7.191-23.433,15.883s-23.576,15.675-23.629,15.595,10.438-7.19,23.435-15.884,23.573-15.673,23.626-15.593" transform="translate(100.289 283.063)" fill="#e0e0e0"/>
    <path id="Path_3043" data-name="Path 3043" d="M504.4,284.635c.053.08-10.44,7.191-23.433,15.883s-23.576,15.674-23.629,15.595,10.438-7.19,23.436-15.884,23.573-15.673,23.626-15.593" transform="translate(97.987 279.621)" fill="#e0e0e0"/>
    <path id="Path_3044" data-name="Path 3044" d="M511.348,295.021c.053.08-10.439,7.191-23.433,15.883s-23.575,15.674-23.628,15.594,10.437-7.19,23.435-15.884,23.573-15.673,23.626-15.593" transform="translate(95.685 276.179)" fill="#e0e0e0"/>
    <path id="Path_3045" data-name="Path 3045" d="M518.294,305.406c.053.08-10.439,7.192-23.433,15.883s-23.576,15.674-23.629,15.594,10.437-7.19,23.435-15.885,23.573-15.673,23.626-15.593" transform="translate(93.383 272.738)" fill="#e0e0e0"/>
    <rect id="Rectangle_3746" data-name="Rectangle 3746" width="114.791" height="77.959" transform="translate(367.136 524.209) rotate(-61.862)" fill="#f5f5f5"/>
    <rect id="Rectangle_3755" data-name="Rectangle 3755" width="114.791" height="77.959" transform="translate(470.805 563.592) rotate(-61.862)" fill="#f5f5f5"/>
    <path id="Path_3046" data-name="Path 3046" d="M253.44,217.2l-4.361,1.494-11.071-30.6,4.362-1.494Z" transform="translate(170.673 312.112)" fill="#e0e0e0"/>
    <path id="Path_3047" data-name="Path 3047" d="M256.025,199.53l1.589,4.391L227.22,214.331l-1.589-4.392Z" transform="translate(174.774 307.824)" fill="#e0e0e0"/>
    <path id="Path_3048" data-name="Path 3048" d="M288.05,123.789c-.053.1-7.026-3.524-15.572-8.093s-15.432-8.358-15.378-8.459,7.025,3.523,15.573,8.095,15.431,8.358,15.376,8.458" transform="translate(164.345 338.411)" fill="#e0e0e0"/>
    <path id="Path_3049" data-name="Path 3049" d="M302.613,145.615c-.053.1-11.594-5.966-25.771-13.548s-25.632-13.813-25.578-13.914,11.59,5.965,25.773,13.549,25.63,13.813,25.575,13.913" transform="translate(166.28 334.793)" fill="#e0e0e0"/>
    <path id="Path_3050" data-name="Path 3050" d="M296.552,156.947c-.053.1-11.593-5.966-25.771-13.548s-25.632-13.813-25.578-13.914,11.591,5.965,25.773,13.549,25.63,13.813,25.575,13.913" transform="translate(168.289 331.038)" fill="#e0e0e0"/>
    <path id="Path_3051" data-name="Path 3051" d="M290.492,168.279c-.054.1-11.594-5.966-25.771-13.549s-25.632-13.813-25.577-13.914,11.59,5.965,25.773,13.549,25.63,13.813,25.576,13.913" transform="translate(170.297 327.283)" fill="#e0e0e0"/>
    <path id="Path_3052" data-name="Path 3052" d="M284.431,179.61c-.053.1-11.593-5.966-25.771-13.548s-25.632-13.813-25.578-13.914,11.591,5.965,25.773,13.549,25.63,13.813,25.575,13.913" transform="translate(172.305 323.528)" fill="#e0e0e0"/>
    <path id="Path_3054" data-name="Path 3054" d="M386.006,439.742c0,.1-86.418.174-192.994.174C86.4,439.917,0,439.839,0,439.742s86.4-.174,193.012-.174c106.577,0,192.994.078,192.994.174" transform="translate(249.548 228.277)" fill="#263238"/>
    <path id="Path_3055" data-name="Path 3055" d="M199.372,230.476,175.73,352.028l-3.095,15.912,157.832-.778c7.083-.035,13.361-6.324,15.639-15.668l27.987-114.758c1.73-7.093-2.066-14.471-7.443-14.466l-159.745.168c-3.527,0-6.611,3.294-7.534,8.038" transform="translate(192.337 300.289)" fill="#e8505b"/>
    <g id="Group_4891" data-name="Group 4891" transform="translate(364.972 522.559)">
      <g id="Group_4890" data-name="Group 4890" clip-path="url(#clip-path)">
        <path id="Path_3056" data-name="Path 3056" d="M199.372,230.476,175.73,352.028l-3.095,15.912,157.832-.778c7.083-.035,13.361-6.324,15.639-15.668l27.987-114.758c1.73-7.093-2.066-14.471-7.443-14.466l-159.745.168c-3.527,0-6.611,3.294-7.534,8.038" transform="translate(-172.635 -222.27)"/>
      </g>
    </g>
    <path id="Path_3057" data-name="Path 3057" d="M286.7,332.513,269.986,197.852a10.6,10.6,0,0,0-10.27-9.617l-36.643.12a9.985,9.985,0,0,0-7.239,3.209l-17.4,18.5-101.912.532c-6.228.032-11.013,5.925-10.187,12.546L101.85,347.6a10.6,10.6,0,0,0,10.256,9.61l177.612-.351c19.781.41,21.67-5.432,21.67-5.432-22.671,5.025-24.69-18.9-24.692-18.915" transform="translate(220.968 311.568)" fill="#c10e21"/>
    <g id="Group_4894" data-name="Group 4894" transform="translate(378.954 574.201)">
      <g id="Group_4893" data-name="Group 4893" clip-path="url(#clip-path-2)">
        <path id="Path_3058" data-name="Path 3058" d="M245.673,343.146l-5.99,6.433-46.136-41.5,5.991-6.434Z" transform="translate(-193.547 -300.216)" fill="#fff"/>
        <path id="Path_3059" data-name="Path 3059" d="M238.1,299.508l6.62,5.956L202.979,350.3l-6.62-5.956Z" transform="translate(-194.479 -299.509)" fill="#fff"/>
      </g>
    </g>
  </g>
</svg>
